…
logi_fit
```

    ## # A tibble: 47 × 4
    ##    city_state        estimate conf_low conf_high
    ##    <chr>                <dbl>    <dbl>     <dbl>
    ##  1 Albuquerque, NM  0.570       -0.186    1.32  
    ##  2 Atlanta, GA      0.0000771   -0.380    0.381 
    ##  3 Baltimore, MD   -0.854       -1.13    -0.584 
    ##  4 Baton Rouge, LA -0.964       -1.56    -0.363 
    ##  5 Birmingham, AL  -0.139       -0.555    0.276 
    ##  6 Boston, MA      -0.395       -1.03     0.244 
    ##  7 Buffalo, NY     -0.653       -1.24    -0.0670
    ##  8 Charlotte, NC   -0.123       -0.585    0.338 
    ##  9 Chicago, IL     -0.891       -1.09    -0.692 
    ## 10 Cincinnati, OH  -0.917       -1.44    -0.390 
    ## # … with 37 more rows
…
